{
  "project_info": {
    "project_number": "657814619916",
    "project_id": "uleamhuerto",
    "storage_bucket": "uleamhuerto.appspot.com"
  },
  "client": [
    {
      "client_info": {
        "mobilesdk_app_id": "1:657814619916:android:af89e46e523be032546b29",
        "android_client_info": {
          "package_name": "facci.denisecatagua.huerto"
        }
      },
      "oauth_client": [
        {
          "client_id": "657814619916-uvqsmq52k5gafhj8l8hdbnp21kq5840k.apps.googleusercontent.com",
          "client_type": 3
        }
      ],
      "api_key": [
        {
          "current_key": "AIzaSyBbWLZr-KHhzQyAnWT2LrOi3FUFgLvdrT0"
        }
      ],
      "services": {
        "appinvite_service": {
          "other_platform_oauth_client": [
            {
              "client_id": "657814619916-uvqsmq52k5gafhj8l8hdbnp21kq5840k.apps.googleusercontent.com",
              "client_type": 3
            }
          ]
        }
      }
    }
  ],
  "configuration_version": "1"
}